{
    "new_api" : "http://183.78.170.142/api/",
    "wordpress_api" : "https://thankyouclub.org/api/",
    "registration_form" : "http://183.78.170.142:8080/register-membership",
    "libraries_file_name" : "Pods-CashbackPlus-acknowledgements"
}
